[
  {
    "firstName":"Eva",
    "lastName":"Nelson",
    "email":"eva.nelson32@example.com",
    "password":"funky"
  },
  {
    "firstName":"Matthew",
    "lastName":"Curtis",
    "email":"matthew.curtis20@example.com",
    "password":"beans"
  },
  {
    "firstName":"Jayden",
    "lastName":"Caldwell",
    "email":"jayden.caldwell98@example.com",
    "password":"656565"
  },
  {
    "firstName":"Julian",
    "lastName":"Miller",
    "email":"julian.miller42@example.com",
    "password":"112387"
  },
  {
    "firstName":"Liam",
    "lastName":"Schmidt",
    "email":"liam.schmidt45@example.com",
    "password":"merlin1"
  }
]